{
    "analysis": {
        "tags": [
            {
                "name": "nothing",
                "timestamp": [
                    "2019-02-28-17-15-07",
                    "2019-02-28-17-15-29",
                    "2019-02-28-17-15-30",
                    "2019-02-28-17-17-22",
                    "2019-02-28-17-17-22",
                    "2019-02-28-17-17-22",
                    "2019-02-28-17-17-25",
                    "2019-02-28-17-17-35",
                    "2019-02-28-17-17-37",
                    "2019-02-28-17-17-39",
                    "2019-02-28-17-18-44",
                    "2019-02-28-17-18-49",
                    "2019-02-28-17-18-56",
                    "2019-02-28-17-19-00",
                    "2019-02-28-17-20-24",
                    "2019-02-28-17-20-29",
                    "2019-02-28-17-20-34",
                    "2019-02-28-17-20-41",
                    "2019-02-28-17-20-44",
                    "2019-02-28-17-20-49",
                    "2019-02-28-17-20-54",
                    "2019-02-28-17-21-08",
                    "2019-02-28-17-21-13",
                    "2019-02-28-17-21-18",
                    "2019-02-28-17-21-23",
                    "2019-02-28-17-21-28",
                    "2019-02-28-17-21-33",
                    "2019-02-28-17-21-38",
                    "2019-02-28-17-21-43",
                    "2019-02-28-17-21-53",
                    "2019-02-28-17-21-58",
                    "2019-02-28-17-22-03",
                    "2019-02-28-17-22-08",
                    "2019-02-28-17-22-13",
                    "2019-02-28-17-22-18",
                    "2019-02-28-17-22-25",
                    "2019-02-28-17-22-28",
                    "2019-02-28-17-22-33",
                    "2019-02-28-17-22-39",
                    "2019-02-28-17-22-43",
                    "2019-02-28-17-22-49",
                    "2019-02-28-17-22-53",
                    "2019-02-28-17-22-58",
                    "2019-02-28-17-23-08",
                    "2019-02-28-17-23-11",
                    "2019-02-28-17-23-15",
                    "2019-02-28-17-23-18",
                    "2019-02-28-17-23-23",
                    "2019-02-28-17-23-28",
                    "2019-02-28-17-23-33",
                    "2019-02-28-17-23-39",
                    "2019-02-28-17-23-43",
                    "2019-02-28-18-11-22",
                    "2019-02-28-18-11-27",
                    "2019-02-28-18-11-32",
                    "2019-02-28-18-11-37",
                    "2019-02-28-18-11-42",
                    "2019-02-28-18-11-47",
                    "2019-02-28-18-11-52",
                    "2019-02-28-18-11-57",
                    "2019-02-28-18-12-02",
                    "2019-02-28-18-12-07",
                    "2019-02-28-18-12-12",
                    "2019-02-28-18-12-17",
                    "2019-02-28-18-12-22",
                    "2019-02-28-18-12-27",
                    "2019-02-28-18-12-32",
                    "2019-02-28-18-12-37",
                    "2019-02-28-18-12-42",
                    "2019-02-28-18-12-47",
                    "2019-02-28-18-12-52",
                    "2019-02-28-18-12-57",
                    "2019-02-28-18-13-02",
                    "2019-02-28-18-13-07",
                    "2019-02-28-18-13-12",
                    "2019-02-28-18-13-17"
                ]
            },
            {
                "name": "person",
                "timestamp": [
                    "2019-02-28-17-11-41"
                ]
            },
            {
                "name": "man",
                "timestamp": [
                    "2019-02-28-17-11-31",
                    "2019-02-28-17-11-41",
                    "2019-02-28-17-11-41"
                ]
            }
        ]
    }
}